
    {"current_page":1,
     "data":[{"id":1,"title":"titleche","company_name":"companynamed","date_publication":1234654,"city":"sunday","description":"sometext","address_company":"new york","original_url":"http","employment":"full","created_at":null,"updated_at":null},
             
    {"id":2,"title":"Aperiam sunt aut veniam eaque fuga quae.","company_name":"Okuneva-Towne","date_publication":3252,"city":"Озёры","description":"Quo fugit nemo asperiores assumenda. Omnis laudantium aperiam asperiores aut unde unde omnis. Suscipit eligendi est consequatur sed et soluta.","address_company":"Hawaii","original_url":"http:\/\/schaden.com\/et-voluptatem-aspernatur-similique-eum-similique-ipsa","employment":"Kelli Mayert","created_at":null,"updated_at":null}
             
    ,{"id":3,"title":"Dolores aut sunt rerum in officiis sed et.","company_name":"Muller-Gibson","date_publication":1240224114,"city":"Ступино","description":"IT,' the Mouse was swimming away from him, and very angrily. 'A knot!' said Alice, and tried to speak, and no one could possibly hear you.' And certainly there was generally a ridge or furrow in the.","address_company":"спуск Косиора, 12","original_url":"http:\/\/labadie.org\/","employment":"Ms. Nichole Heidenreich","created_at":null,"updated_at":null},{"id":4,"title":"Sint maxime rerum est reprehenderit cum eum quas.","company_name":"Connelly-Hettinger","date_publication":1360718578,"city":"Шатура","description":"Hatter said, tossing his head contemptuously. 'I dare say there may be ONE.' 'One, indeed!' said the Gryphon, 'you first form into a small passage, not much surprised at her as hard as she could.","address_company":"ул. Сталина, 42","original_url":"http:\/\/kautzer.info\/atque-earum-ducimus-corrupti-cumque-alias-corrupti-saepe-ea","employment":"Baby Denesik III","created_at":null,"updated_at":null},{"id":5,"title":"Voluptatibus deserunt ut voluptatum quod omnis qui nisi.","company_name":"Johnston, Rippin and Eichmann","date_publication":1215885774,"city":"Орехово-Зуево","description":"I know?' said Alice, (she had kept a piece of it in with the bread-and-butter getting so thin--and the twinkling of the window, and some were birds,) 'I suppose so,' said the Mouse, in a louder.","address_company":"пл. Будапештсткая, 62","original_url":"http:\/\/www.bechtelar.net\/blanditiis-sit-facilis-optio-facere","employment":"Dr. Reece Wintheiser","created_at":null,"updated_at":null},{"id":6,"title":"Dolorem dolorem laudantium id et ducimus autem consequuntur non.","company_name":"Nienow Group","date_publication":678720564,"city":"Чехов","description":"CURTSEYING as you're falling through the neighbouring pool--she could hear the rattle of the trees had a large mushroom growing near her, she began, in a hurry: a large arm-chair at one and then.","address_company":"пл. Ладыгина, 92","original_url":"https:\/\/www.bednar.biz\/voluptatibus-dolorem-optio-rerum-minima-est-deleniti-assumenda","employment":"Ellsworth Feeney","created_at":null,"updated_at":null},{"id":7,"title":"Non quis fugiat sit quia exercitationem.","company_name":"Quigley-Tremblay","date_publication":975137906,"city":"Зарайск","description":"AND WASHING--extra.\"' 'You couldn't have done that?' she thought. 'But everything's curious today. I think I must have imitated somebody else's hand,' said the Cat, and vanished again. Alice waited.","address_company":"въезд Домодедовская, 75","original_url":"http:\/\/www.kozey.com\/corporis-in-eaque-et-harum-a-perferendis-dicta-assumenda","employment":"Prof. Kayli Wilkinson","created_at":null,"updated_at":null},{"id":8,"title":"Molestiae nulla libero in nam nisi libero non.","company_name":"Crist, Gulgowski and Blanda","date_publication":259505592,"city":"Видное","description":"PRECIOUS nose'; as an unusually large saucepan flew close by it, and on both sides of the mushroom, and raised herself to some tea and bread-and-butter, and then Alice dodged behind a great crash,.","address_company":"спуск Будапештсткая, 99","original_url":"http:\/\/www.corkery.com\/dolorem-maxime-recusandae-aut-quas-saepe-ab-et.html","employment":"Veronica Hackett","created_at":null,"updated_at":null},{"id":9,"title":"Sit culpa qui vel earum.","company_name":"Lemke LLC","date_publication":182535022,"city":"Ступино","description":"She did it at last, and managed to swallow a morsel of the sense, and the baby joined):-- 'Wow! wow! wow!' 'Here! you may nurse it a very short time the Queen said to live. 'I've seen a good deal to.","address_company":"шоссе Бухарестская, 52","original_url":"https:\/\/borer.org\/possimus-vitae-sapiente-voluptates-quis-culpa-veritatis-tempore.html","employment":"Jerel Abbott","created_at":null,"updated_at":null},{"id":10,"title":"Autem nostrum est voluptatibus qui sed quibusdam.","company_name":"Ortiz-Paucek","date_publication":519760195,"city":"Ногинск","description":"Alice, who was sitting on a bough of a large ring, with the bones and the Mock Turtle; 'but it doesn't understand English,' thought Alice; 'only, as it's asleep, I suppose Dinah'll be sending me on.","address_company":"пр. Чехова, 58","original_url":"http:\/\/www.bergnaum.biz\/sunt-eius-quas-qui-explicabo.html","employment":"Prof. Bell Kshlerin","created_at":null,"updated_at":null}],"from":1,"last_page":5,"next_page_url":"http:\/\/localhost?page=2","path":"http:\/\/localhost","per_page":10,"prev_page_url":null,"to":10,"total":42}